module gitlab.com/lightmeter/controlcenter

go 1.15

require (
	github.com/alecthomas/template v0.0.0-20190718012654-fb15b899a751
	github.com/chai2010/gettext-go v1.0.3-0.20200705094307-42825e1d282c
	github.com/cpuguy83/go-md2man/v2 v2.0.0 // indirect
	github.com/dlclark/regexp2 v1.2.0 // indirect
	github.com/fsnotify/fsnotify v1.4.9 // indirect
	github.com/go-openapi/spec v0.19.9 // indirect
	github.com/go-openapi/swag v0.19.9 // indirect
	github.com/golang/mock v1.4.4
	github.com/google/go-cmp v0.5.2 // indirect
	github.com/gorilla/sessions v1.2.0
	github.com/hpcloud/tail v1.0.0
	github.com/jstemmer/go-junit-report v0.9.1
	github.com/mailru/easyjson v0.7.6 // indirect
	github.com/mattn/go-sqlite3 v1.14.2
	github.com/mrichman/godnsbl v1.0.1-0.20200717145146-f46459fe0fb6
	github.com/pkg/errors v0.8.1
	github.com/pressly/goose v2.6.0+incompatible
	github.com/satori/go.uuid v1.2.0
	github.com/shurcooL/httpfs v0.0.0-20190707220628-8d4bc4ba7749 // indirect
	github.com/shurcooL/vfsgen v0.0.0-20200824052919-0d455de96546
	github.com/slack-go/slack v0.6.6
	github.com/smartystreets/goconvey v1.6.4
	github.com/swaggo/http-swagger v0.0.0-20200308142732-58ac5e232fba
	github.com/swaggo/swag v1.6.7
	github.com/t-yuki/gocover-cobertura v0.0.0-20180217150009-aaee18c8195c
	github.com/test-go/testify v1.1.4 // indirect
	github.com/trustelem/zxcvbn v1.0.1
	github.com/urfave/cli/v2 v2.2.0 // indirect
	golang.org/x/crypto v0.0.0-20200622213623-75b288015ac9
	golang.org/x/net v0.0.0-20200904194848-62affa334b73 // indirect
	golang.org/x/text v0.3.3
	golang.org/x/tools v0.0.0-20200917221617-d56e4e40bc9d // indirect
	gopkg.in/fsnotify.v1 v1.4.7 // indirect
	gopkg.in/tomb.v1 v1.0.0-20141024135613-dd632973f1e7 // indirect
	gopkg.in/yaml.v2 v2.3.0 // indirect
)
